@startuml
!includeurl https://raw.githubusercontent.com/RicardoNiepel/C4-PlantUML/release/1-0/C4_Component.puml
'LAYOUT_AS_SKETCH
'LAYOUT_WITH_LEGEND

Person(admin, "Administrator", "Manages group and team mappings")

Container(account_linker, "Account Linker", "Python, Django", "Links user accounts between different extrernal systems.")
ContainerDb(db, "Database", "SQL", "Stores relations an mappings created by users an admins.")

Container_Boundary(group_linker, "Group Syncer") {
    Component(group_model, "Group Model", "Django Model", "Contains all user related infromation")
    Component(provider, "External Service Provider", "Python", "Interacts with external service API")
    Component(reconceiler, "Reconceiler", "Python", "Add or remove members from the target group")
}

System_Ext(gh, "Github.com", "Contains teams and organizations with members")
System_Ext(gl, "Gitlab.com", "Contains groups and subgroups with members")
System_Ext(cust, "On premise Gitlab", "Contains groups and subgroups with members")

Rel(admin, group_model, "Defines relations between groups.")
Rel(group_model, provider, "Access to external groups and teams via common API.")

Rel(provider, gh, "Fetch teams")
Rel(provider, gl, "Fetch groups")
Rel(provider, cust, "Fetch groups")

Rel_Neighbor(group_model, db, "Store group mapping information")

Rel_Neighbor(reconceiler, account_linker, "Get user account mappings")
Rel_Neighbor(reconceiler, group_model, "Get source and target")
Rel(reconceiler, provider, "Add and remove members")
@enduml